4_Session4_TSeriesGraphs_Asynchronous_Solutions
…
group_by() + n()

Examining the dataset, to filter out costs corresponding to the category ATC2 = h02 and generate data with the monthly expenses corresponding to that grop.

When using group_by(), we can always combine it with summarise() + n() to check the size of each of the groups being formed:

PBS %>%
  filter(ATC2 == "H02") %>%
  group_by(ATC2) %>%
  summarise(
    # Returns the size of each group
    size = n()
  )

## # A tsibble: 204 x 3 [1M]
## # Key:       ATC2 [1]
##    ATC2     Month  size
##    <chr>    <mth> <int>
##  1 H02   1991 Jul     4
##  2 H02   1991 Aug     4
##  3 H02   1991 Sep     4
##  4 H02   1991 Oct     4
##  5 H02   1991 Nov     4
##  6 H02   1991 Dec     4
##  7 H02   1992 Jan     4
##  8 H02   1992 Feb     4
##  9 H02   1992 Mar     4
## 10 H02   1992 Apr     4
## # ... with 194 more rows

In this particular case we see that for each month, that for ATC2 = h02 there are at least 4 cost entries per month. In fact, if we filter the original tsibble by ATC2 == h02 and then order by date, we can see this:

PBS %>%
  filter(ATC2 == "H02") %>%
  select(ATC2, Month, Cost, everything()) %>%
  arrange(Month)

## # A tsibble: 816 x 9 [1M]
## # Key:       Concession, Type, ATC1, ATC2 [4]
##    ATC2     Month   Cost Concession   Type   ATC1  ATC1_desc   ATC2_desc Scripts
##    <chr>    <mth>  <dbl> <chr>        <chr>  <chr> <chr>       <chr>       <dbl>
##  1 H02   1991 Jul 317384 Concessional Co-pa~ H     Systemic h~ CORTICOS~   63261
##  2 H02   1991 Jul  82929 Concessional Safet~ H     Systemic h~ CORTICOS~   12211
##  3 H02   1991 Jul  20178 General      Co-pa~ H     Systemic h~ CORTICOS~    4013
##  4 H02   1991 Jul   9304 General      Safet~ H     Systemic h~ CORTICOS~    2101
##  5 H02   1991 Aug 269891 Concessional Co-pa~ H     Systemic h~ CORTICOS~   53528
##  6 H02   1991 Aug 100602 Concessional Safet~ H     Systemic h~ CORTICOS~   14827
##  7 H02   1991 Aug  16519 General      Co-pa~ H     Systemic h~ CORTICOS~    3397
##  8 H02   1991 Aug  13894 General      Safet~ H     Systemic h~ CORTICOS~    2970
##  9 H02   1991 Sep 269703 Concessional Co-pa~ H     Systemic h~ CORTICOS~   52822
## 10 H02   1991 Sep 128900 Concessional Safet~ H     Systemic h~ CORTICOS~   18896
## # ... with 806 more rows
…
Can you compute the column diff using the lag() function instead of the function difference()?. If so, do it and store it in a separate column called diff2. Then compute their difference to prove they are the same.
Hint: you need to compute the first lag of the variable Close to do this.

dgoog %>%
  mutate(diff2 = Close - lag(Close, 1)) %>%
  mutate(check = diff - diff2)

## # A tsibble: 251 x 7 [1]
## # Key:       Symbol [1]
##    Symbol trading_day Close Date         diff  diff2 check
##    <chr>        <int> <dbl> <date>      <dbl>  <dbl> <dbl>
##  1 GOOG             1 1065  2018-01-02 NA     NA        NA
##  2 GOOG             2 1082. 2018-01-03 17.5   17.5       0
##  3 GOOG             3 1086. 2018-01-04  3.92   3.92      0
##  4 GOOG             4 1102. 2018-01-05 15.8   15.8       0
##  5 GOOG             5 1107. 2018-01-08  4.71   4.71      0
##  6 GOOG             6 1106. 2018-01-09 -0.680 -0.680     0
##  7 GOOG             7 1103. 2018-01-10 -3.65  -3.65      0
##  8 GOOG             8 1106. 2018-01-11  2.91   2.91      0
##  9 GOOG             9 1122. 2018-01-12 16.7   16.7       0
## 10 GOOG            10 1122. 2018-01-16 -0.5   -0.5       0
## # ... with 241 more rows
…
