TSeries_Analysis_Midterm_exam
…
unemp_q_mean <- unemp %>%
  
  # Step 1: Indicate level of aggregation desired in the index. In this case
  # we will start with a weekly aggregation:
  index_by(quarter = yearquarter(date)) %>%
  
  # Step 2: aggregate variables with the desired output
  summarise(
    unemp = mean(unemp, na.rm = TRUE), # Computes the mean NO2 levels for each calendar week.
  )

unemp_q_mean

## # A tsibble: 85 x 2 [1Q]
##    quarter    unemp
##      <qtr>    <dbl>
##  1 2001 Q1 1997223.
##  2 2001 Q2 1883765.
##  3 2001 Q3 1867812 
##  4 2001 Q4 1971828.
##  5 2002 Q1 2102677.
##  6 2002 Q2 2008652.
##  7 2002 Q3 1984206.
##  8 2002 Q4 2102892.
##  9 2003 Q1 2176290.
## 10 2003 Q2 2053481.
## # ... with 75 more rows
…
So far, we have averaged the unemployment values over each quarter. Technically, to make the unemployment series quarterly starting from monthly data, we should pick up the value corresponding to the last month of every quarter.

Follow these steps to achieve this:

5.1 Convert the original monthly series back to a tibble using as_tibble() and store it in a new variable (0 points)

unemp_tb <- unemp %>% as_tibble()

5.2 Generate a new column called quarter indicating the year and quarter of each data point using mutate() and yearquarter() (0 points)

unemp_tb <- unemp_tb %>% mutate(quarter = yearquarter(date))
unemp_tb

## # A tibble: 254 x 3
##        date   unemp quarter
##       <mth>   <dbl>   <qtr>
##  1 2001 Jan 2017389 2001 Q1
##  2 2001 Feb 1993273 2001 Q1
##  3 2001 Mar 1981006 2001 Q1
##  4 2001 Apr 1910453 2001 Q2
##  5 2001 May 1898285 2001 Q2
##  6 2001 Jun 1842556 2001 Q2
##  7 2001 Jul 1835738 2001 Q3
##  8 2001 Aug 1878513 2001 Q3
##  9 2001 Sep 1889185 2001 Q3
## 10 2001 Oct 1940910 2001 Q4
## # ... with 244 more rows
…
NOTE: the key here was to realize that dates (and times) are a set that admits ordering (where comparisons such as smaller than or greater than are possible). The max() function is able to make use of this to determine the last month within each of the subgroups created when grouping by quarter.

In fact, if you go over session 2_3, you will see that we explained there that dates and times are measured as elapsed time from a given origin (usually but not necessarily 1970-01-01).

q_last_month <-unemp_tb %>% 
  group_by(quarter) %>%
  summarise(
    l_month = max(date)
  ) %>%
  ungroup()

q_last_month

## # A tibble: 85 x 2
##    quarter  l_month
##      <qtr>    <mth>
##  1 2001 Q1 2001 Mar
##  2 2001 Q2 2001 Jun
##  3 2001 Q3 2001 Sep
##  4 2001 Q4 2001 Dec
##  5 2002 Q1 2002 Mar
##  6 2002 Q2 2002 Jun
##  7 2002 Q3 2002 Sep
##  8 2002 Q4 2002 Dec
##  9 2003 Q1 2003 Mar
## 10 2003 Q2 2003 Jun
## # ... with 75 more rows

5.4. Using a left_join() between this new tibble and the original monthly tsibble, obtain a series that keeps only one data point per quarter (the point corresponding to the latest month of each quarter). (0.5 points)

NOTE: the key here is to swap the order of the tables to be joined so that q_last_month is the left table (the table that determines which rows are be kept in the join operation).

unemp_q <- left_join(q_last_month, unemp, by=c("l_month" = "date")) %>% 
  as_tsibble(index = quarter)
unemp_q

## # A tsibble: 85 x 3 [1Q]
##    quarter  l_month   unemp
##      <qtr>    <mth>   <dbl>
##  1 2001 Q1 2001 Mar 1981006
##  2 2001 Q2 2001 Jun 1842556
##  3 2001 Q3 2001 Sep 1889185
##  4 2001 Q4 2001 Dec 1988716
##  5 2002 Q1 2002 Mar 2083103
##  6 2002 Q2 2002 Jun 1962963
##  7 2002 Q3 2002 Sep 2006785
##  8 2002 Q4 2002 Dec 2127018
##  9 2003 Q1 2003 Mar 2163499
## 10 2003 Q2 2003 Jun 2020367
## # ... with 75 more rows
