12_1_Benchmarks_Forecasts_Decomposition
…
Generating and printing forecasts:

# produce forecasts for 8 timesteps
forecasts <- fit %>% forecast(h = 36)
forecasts

## # A fable: 36 x 5 [1M]
## # Key:     Series_ID, .model [1]
##    Series_ID     .model    Month           Employed  .mean
##    <chr>         <chr>     <mth>             <dist>  <dbl>
##  1 CEU0500000001 SNaive 2019 Oct N(128001, 5538565) 128001
##  2 CEU0500000001 SNaive 2019 Nov N(128415, 5538565) 128415
##  3 CEU0500000001 SNaive 2019 Dec N(128363, 5538565) 128363
##  4 CEU0500000001 SNaive 2020 Jan N(125932, 5538565) 125932
##  5 CEU0500000001 SNaive 2020 Feb N(126370, 5538565) 126370
##  6 CEU0500000001 SNaive 2020 Mar N(126994, 5538565) 126994
##  7 CEU0500000001 SNaive 2020 Apr N(128007, 5538565) 128007
##  8 CEU0500000001 SNaive 2020 May N(128771, 5538565) 128771
##  9 CEU0500000001 SNaive 2020 Jun N(129800, 5538565) 129800
## 10 CEU0500000001 SNaive 2020 Jul N(129883, 5538565) 129883
## # ... with 26 more rows
…
Generating and printing the forecast

# produce forecasts for 36 timesteps
forecasts <- fit %>% forecast(h = 36)
forecasts

## # A fable: 36 x 5 [1M]
## # Key:     Series_ID, .model [1]
##    Series_ID     .model    Month           Employed   .mean
##    <chr>         <chr>     <mth>             <dist>   <dbl>
##  1 CEU0500000001 Drift  2019 Oct  N(129518, 758249) 129518.
##  2 CEU0500000001 Drift  2019 Nov N(129724, 1529572) 129724.
##  3 CEU0500000001 Drift  2019 Dec N(129929, 2313968) 129929.
##  4 CEU0500000001 Drift  2020 Jan N(130135, 3111437) 130135.
##  5 CEU0500000001 Drift  2020 Feb N(130341, 3921980) 130341.
##  6 CEU0500000001 Drift  2020 Mar N(130547, 4745596) 130547.
##  7 CEU0500000001 Drift  2020 Apr N(130752, 5582285) 130752.
##  8 CEU0500000001 Drift  2020 May N(130958, 6432047) 130958.
##  9 CEU0500000001 Drift  2020 Jun N(131164, 7294883) 131164.
## 10 CEU0500000001 Drift  2020 Jul N(131370, 8170792) 131370.
## # ... with 26 more rows
…
