5_1_Time_Series_Decomposition_Intro
…
As you can see in the graph above, the level of the seasonality (the amplitude of the seasonal peaks) does not seem to change with the level of the series (with the level of the trend). Let us inspect it more closely.

With this code we can obtain the components using the STL decomposition method (more on that and on why we pick this method for this additive scheme later in the chapter):

dcmp <- us_retail_employment %>%
  model(stl = STL(Employed))

components(dcmp)

## # A dable: 357 x 7 [1M]
## # Key:     .model [1]
## # :        Employed = trend + season_year + remainder
##    .model    Month Employed  trend season_year remainder season_adjust
##    <chr>     <mth>    <dbl>  <dbl>       <dbl>     <dbl>         <dbl>
##  1 stl    1990 Jan   13256. 13288.      -33.0      0.836        13289.
##  2 stl    1990 Feb   12966. 13269.     -258.     -44.6          13224.
##  3 stl    1990 Mar   12938. 13250.     -290.     -22.1          13228.
##  4 stl    1990 Apr   13012. 13231.     -220.       1.05         13232.
##  5 stl    1990 May   13108. 13211.     -114.      11.3          13223.
##  6 stl    1990 Jun   13183. 13192.      -24.3     15.5          13207.
##  7 stl    1990 Jul   13170. 13172.      -23.2     21.6          13193.
##  8 stl    1990 Aug   13160. 13151.       -9.52    17.8          13169.
##  9 stl    1990 Sep   13113. 13131.      -39.5     22.0          13153.
## 10 stl    1990 Oct   13185. 13110.       61.6     13.2          13124.
## # ... with 347 more rows
…
a10

## # A tsibble: 204 x 3 [1M]
##       Month  TotalC  Cost
##       <mth>   <dbl> <dbl>
##  1 1991 Jul 3526591  3.53
##  2 1991 Aug 3180891  3.18
##  3 1991 Sep 3252221  3.25
##  4 1991 Oct 3611003  3.61
##  5 1991 Nov 3565869  3.57
##  6 1991 Dec 4306371  4.31
##  7 1992 Jan 5088335  5.09
##  8 1992 Feb 2814520  2.81
##  9 1992 Mar 2985811  2.99
## 10 1992 Apr 3204780  3.20
## # ... with 194 more rows
…
square root transformation

cubic root transformation

log transformation

inverse transformation

The following code snippet generates one column for each of the transformations (transformations applied to the variable Cost):

a10 <- mutate(a10, sqrt_cost = sqrt(Cost), cbrt_cost = Cost^(1/3), log_cost = log(Cost), inv_cost = -1/Cost)
a10

## # A tsibble: 204 x 7 [1M]
##       Month  TotalC  Cost sqrt_cost cbrt_cost log_cost inv_cost
##       <mth>   <dbl> <dbl>     <dbl>     <dbl>    <dbl>    <dbl>
##  1 1991 Jul 3526591  3.53      1.88      1.52     1.26   -0.284
##  2 1991 Aug 3180891  3.18      1.78      1.47     1.16   -0.314
##  3 1991 Sep 3252221  3.25      1.80      1.48     1.18   -0.307
##  4 1991 Oct 3611003  3.61      1.90      1.53     1.28   -0.277
##  5 1991 Nov 3565869  3.57      1.89      1.53     1.27   -0.280
##  6 1991 Dec 4306371  4.31      2.08      1.63     1.46   -0.232
##  7 1992 Jan 5088335  5.09      2.26      1.72     1.63   -0.197
##  8 1992 Feb 2814520  2.81      1.68      1.41     1.03   -0.355
##  9 1992 Mar 2985811  2.99      1.73      1.44     1.09   -0.335
## 10 1992 Apr 3204780  3.20      1.79      1.47     1.16   -0.312
## # ... with 194 more rows
…
