7_1_Moving_Averages
…
# Create the different Moving Averages
for (i in seq(3, 13, by = 2)){
    col_name <- paste0(as.character(i), "-MA")
    width = (i-1)/2
    aus_exports[[col_name]] = slider::slide_dbl(aus_exports$Exports, mean,
                               
                              #.complete = TRUE -> function evaluated only on full windows
                              .before = width, .after = width, .complete = TRUE)

}

aus_exports

## # A tsibble: 58 x 15 [1Y]
## # Key:       Country [1]
##    Country   Code   Year      GDP Growth   CPI Imports Exports Population `3-MA`
##    <fct>     <fct> <dbl>    <dbl>  <dbl> <dbl>   <dbl>   <dbl>      <dbl>  <dbl>
##  1 Australia AUS    1960  1.86e10  NA     7.96    14.1    13.0   10276477   NA  
##  2 Australia AUS    1961  1.96e10   2.49  8.14    15.0    12.4   10483000   13.1
##  3 Australia AUS    1962  1.99e10   1.30  8.12    12.6    13.9   10742000   13.1
##  4 Australia AUS    1963  2.15e10   6.21  8.17    13.8    13.0   10950000   14.0
##  5 Australia AUS    1964  2.38e10   6.98  8.40    13.8    14.9   11167000   13.7
##  6 Australia AUS    1965  2.59e10   5.98  8.69    15.3    13.2   11388000   13.7
##  7 Australia AUS    1966  2.73e10   2.38  8.98    15.1    12.9   11651000   13.0
##  8 Australia AUS    1967  3.04e10   6.30  9.29    13.9    12.9   11799000   12.7
##  9 Australia AUS    1968  3.27e10   5.10  9.52    14.5    12.3   12009000   12.4
## 10 Australia AUS    1969  3.66e10   7.04  9.83    13.3    12.0   12263000   12.4
## # ... with 48 more rows, and 5 more variables: 5-MA <dbl>, 7-MA <dbl>,
## #   9-MA <dbl>, 11-MA <dbl>, 13-MA <dbl>
…
