9_3_Assignment_Residuals_Analysis
…
QUESTION: what does the number of rows in this mable represent?

QUESTION: what does the number of columns in this mable represent?

Extract the fitted values and the residuals

model_vals <- fit %>% augment()

model_vals

## # A tsibble: 58 x 7 [1Y]
## # Key:       Country, .model [1]
##    Country   .model  Year Exports .fitted  .resid  .innov
##    <fct>     <chr>  <dbl>   <dbl>   <dbl>   <dbl>   <dbl>
##  1 Australia Nv      1960    13.0    NA   NA      NA     
##  2 Australia Nv      1961    12.4    13.0 -0.591  -0.591 
##  3 Australia Nv      1962    13.9    12.4  1.54    1.54  
##  4 Australia Nv      1963    13.0    13.9 -0.937  -0.937 
##  5 Australia Nv      1964    14.9    13.0  1.93    1.93  
##  6 Australia Nv      1965    13.2    14.9 -1.72   -1.72  
##  7 Australia Nv      1966    12.9    13.2 -0.288  -0.288 
##  8 Australia Nv      1967    12.9    12.9 -0.0487 -0.0487
##  9 Australia Nv      1968    12.3    12.9 -0.586  -0.586 
## 10 Australia Nv      1969    12.0    12.3 -0.343  -0.343 
## # ... with 48 more rows
…
